Chapitre 3 Traitement de la donnée | Développement d’une application Shiny sur l’artificialisation
…
Pour transformer au format long, nous utilisons la fonction gather :

df <- df[, c("idcom", "idcomtxt", myCols)]
df <- gather(df,
             "variable", # key
             "value",    # value
             myCols) # variables
df

# A tibble: 44 x 4
   idcom idcomtxt        variable    value
   <chr> <chr>           <chr>       <dbl>
 1 13001 Aix-en-Provence art09act10  70439
 2 13001 Aix-en-Provence art09hab10 223015
 3 13001 Aix-en-Provence art09mix10  21156
 4 13001 Aix-en-Provence art09inc10   2502
 5 13001 Aix-en-Provence art10act11  70440
 6 13001 Aix-en-Provence art10hab11 223016
 7 13001 Aix-en-Provence art10mix11  21157
 8 13001 Aix-en-Provence art10inc11   2499
 9 13001 Aix-en-Provence art11act12  83789
10 13001 Aix-en-Provence art11hab12 343830
# ... with 34 more rows
…
Au final, nous n’avons plus besoin de la variable variable :

df$variable <- NULL

Voici notre fichier df au final :

df

# A tibble: 44 x 5
   idcom idcomtxt         value year  type    
   <chr> <chr>            <dbl> <chr> <chr>   
 1 13001 Aix-en-Provence  70439 2009  Activité
 2 13001 Aix-en-Provence 223015 2009  Habitat 
 3 13001 Aix-en-Provence  21156 2009  Mixte   
 4 13001 Aix-en-Provence   2502 2009  Inconnu 
 5 13001 Aix-en-Provence  70440 2010  Activité
 6 13001 Aix-en-Provence 223016 2010  Habitat 
 7 13001 Aix-en-Provence  21157 2010  Mixte   
 8 13001 Aix-en-Provence   2499 2010  Inconnu 
 9 13001 Aix-en-Provence  83789 2011  Activité
10 13001 Aix-en-Provence 343830 2011  Habitat 
# ... with 34 more rows
…
  # Réagence les colonnes
  df <- df[, c("idcom", "idcomtxt", "year", "type", "value")]
  
  return(df)
}

flux %>% getStatsFlux("13001")

# A tibble: 44 x 5
   idcom idcomtxt        year  type      value
   <chr> <chr>           <chr> <chr>     <dbl>
 1 13001 Aix-en-Provence 2009  Activité  70439
 2 13001 Aix-en-Provence 2009  Habitat  223015
 3 13001 Aix-en-Provence 2009  Mixte     21156
 4 13001 Aix-en-Provence 2009  Inconnu    2502
 5 13001 Aix-en-Provence 2010  Activité  70440
 6 13001 Aix-en-Provence 2010  Habitat  223016
 7 13001 Aix-en-Provence 2010  Mixte     21157
 8 13001 Aix-en-Provence 2010  Inconnu    2499
 9 13001 Aix-en-Provence 2011  Activité  83789
10 13001 Aix-en-Provence 2011  Habitat  343830
# ... with 34 more rows
…
