Chapitre 12 Transformation du format wide vers long | Développement d’une application Shiny sur l’artificialisation
…
Pour transformer au format long, nous utilisons la fonction gather :

df <- df[, c("idcom", "idcomtxt", myCols)]
df <- gather(df,
             "variable", # key
             "value",    # value
             myCols) # variables
df

# A tibble: 44 x 4
   idcom idcomtxt        variable    value
   <chr> <chr>           <chr>       <dbl>
 1 13001 Aix-en-Provence art09act10  70439
 2 13001 Aix-en-Provence art09hab10 223015
 3 13001 Aix-en-Provence art09mix10  21156
 4 13001 Aix-en-Provence art09inc10   2502
 5 13001 Aix-en-Provence art10act11  70440
 6 13001 Aix-en-Provence art10hab11 223016
 7 13001 Aix-en-Provence art10mix11  21157
 8 13001 Aix-en-Provence art10inc11   2499
 9 13001 Aix-en-Provence art11act12  83789
10 13001 Aix-en-Provence art11hab12 343830
# ... with 34 more rows
…
